{
  "project_info": {
    "project_number": "538592446939",
    "firebase_url": "https://digitalblood-206f5.firebaseio.com",
    "project_id": "digitalblood-206f5",
    "storage_bucket": "digitalblood-206f5.appspot.com"
  },
  "client": [
    {
      "client_info": {
        "mobilesdk_app_id": "1:538592446939:android:488d0423c887b423",
        "android_client_info": {
          "package_name": "wolfsoft.invincible"
        }
      },
      "oauth_client": [
        {
          "client_id": "538592446939-igfdb5e57s8lm98etlasrgmfvfaocvrg.apps.googleusercontent.com",
          "client_type": 1,
          "android_info": {
            "package_name": "wolfsoft.invincible",
            "certificate_hash": "97382ce6f65733a8e982107b743d1f649e53abed"
          }
        },
        {
          "client_id": "538592446939-c5eamuk4lhmuaiqngj34cj7t891fgj8b.apps.googleusercontent.com",
          "client_type": 3
        }
      ],
      "api_key": [
        {
          "current_key": "AIzaSyCPcfz_Ho1peVRzmJ0iSk3VRhsLsvNUZTk"
        }
      ],
      "services": {
        "analytics_service": {
          "status": 1
        },
        "appinvite_service": {
          "status": 2,
          "other_platform_oauth_client": [
            {
              "client_id": "538592446939-c5eamuk4lhmuaiqngj34cj7t891fgj8b.apps.googleusercontent.com",
              "client_type": 3
            }
          ]
        },
        "ads_service": {
          "status": 2
        }
      }
    }
  ],
  "configuration_version": "1"
}